Programowani,101,Jan Kowalski,Poniedziałek,8:00,90,CA1,

Grafika,102,Jan Nowak,Poniedziałek,8:00,90,CA2,

Programowani,101,Jan Kowalski,Poniedziałek,9:45,90,CA2,

Grafika,102,Jan Nowak,Poniedziałek,9:45,90,CA1,

Programowani,101,Jan Kowalski,Piątek,13:30,90,CA3,

Grafika,102,Jan Nowak,Piątek,13:15,90,CA4,

Algorytmy,103,Adam Nowak,Poniedziałek,11:30,90,CA1,

PSI,110,Bielanski,Wtorek,15:00,90,CA2,

II,115,Rauch,Piątek,13:30,90,CA5,

Programowani,101,Jan Kowalski,Poniedziałek,13:15,90,CA4,

Grafika,102,Jan Nowak,Poniedziałek,13:15,90,CA3,

Algorytmy,103,Adam Nowak,Poniedziałek,13:15,90,CA2,

II,122,Rauch,Wtorek,13:15,90,W,

Chemia,166,Chlon,Piątek,13:15,90,P1,

PO,303,Glowacki,Piątek,13:15,90,CL4,
