MES, 190 B5,Kowalska,Wtorek,17:00,90,W,

PSI, 391 B5 ,Kolodziejczyk,Środa,19:00,90,CL3,

MCS ,121 B4,Milenin,Środa,14:00,90,CA1,

PO, 428 B5,Glowacki,Wtorek,12:30,90,W,

II ,142 B5,Rauch,Wtorek,11:00,90,W,

PR, 215 D4,Banas,Czwartek,9:30,60,W,

PR ,126 B4,Banas,Wtorek,15:00,60,W,

AiSD,324 B5,Chlon,Piątek ,18:00,90,CL2,

WCIM ,217 B4,Wieckowski,Poniedziałek,10:30,90,CL2,

AiSD,202 B5,Chlon,Poniedziałek ,9:00,90,CL1,

AK,118 B4,Chlon,Poniedziałek,11:15,90,CL3,

AK,118 B4,Chlon,Poniedziałek,14:15,90,CL5,
